<?xml version="1.0" encoding="utf-8"?>
<!-- Generator: Adobe Illustrator 19.2.1, SVG Export Plug-In . SVG Version: 6.00 Build 0)  -->
<svg version="1.1" id="Layer_1" xmlns="http://www.w3.org/2000/svg" xmlns:xlink="http://www.w3.org/1999/xlink" x="0px" y="0px"
	 viewBox="0 0 32 32" style="enable-background:new 0 0 32 32;" xml:space="preserve">
<style type="text/css">
	.st0{fill:#FFFFFF;}
</style>
<path id="icon_edit" class="st0" d="M20.8,6.9L8.7,19.1l-1.7,6l6-1.7L25,11.2L20.8,6.9z M23.5,11.2l-0.9,0.9l-2.7-2.7l0.9-0.9
	L23.5,11.2z M11.7,21.1l9.1-9.1l0.9,0.9L12.6,22L11.7,21.1z M10,19.4l9.1-9.1l0.9,0.9l-9.1,9.1L10,19.4z M9.4,20.5l2.1,2.1l-3,0.9
	L9.4,20.5z"/>
</svg>
