<?xml version="1.0" encoding="utf-8"?>
<!-- Generator: Adobe Illustrator 19.2.1, SVG Export Plug-In . SVG Version: 6.00 Build 0)  -->
<svg version="1.1" id="Layer_1" xmlns="http://www.w3.org/2000/svg" xmlns:xlink="http://www.w3.org/1999/xlink" x="0px" y="0px"
	 viewBox="0 0 32 32" style="enable-background:new 0 0 32 32;" xml:space="preserve">
<style type="text/css">
	.st0{
		fill:#3E6FE4;
	}
</style>
<path id="table" class="st0" d="M8,10h7v5H8V10z M17,10h7v5h-7V10z M17,17h7v5h-7V17z M8,17h7v5H8V17z"/>
</svg>
